<?xml version="1.0" encoding="UTF-8" standalone="no"?>
<svg width="256px" height="256px" viewBox="0 0 256 256" version="1.1" xmlns="http://www.w3.org/2000/svg" xmlns:xlink="http://www.w3.org/1999/xlink">
    <!-- Generator: Sketch 43.1 (39012) - http://www.bohemiancoding.com/sketch -->
    <title>icon-ekrut-profile-sertifikat copy</title>
    <desc>Created with Sketch.</desc>
    <defs>
        <polygon id="path-1" points="0.0384546913 0.384546913 0.0384546913 239.058716 248.46922 239.058716 248.46922 0.384546913 0.0384546913 0.384546913"></polygon>
    </defs>
    <g id="Page-1" stroke="none" stroke-width="1" fill="none" fill-rule="evenodd">
        <g id="icon-ekrut-profile-sertifikat-copy">
            <g id="star" transform="translate(1.000000, 8.000000)">
                <mask id="mask-2" fill="white">
                    <use xlink:href="#path-1"></use>
                </mask>
                <g id="Clip-2"></g>
                <path d="M247.369415,89.8045224 C244.497491,81.0368528 236.756562,74.9353751 227.578709,74.269468 L167.74385,69.9106288 L145.081218,14.3820545 C141.594019,5.87010863 133.442265,0.384546913 124.211857,0.384546913 C114.983372,0.384546913 106.83226,5.87010863 103.344419,14.4346093 L80.7324198,70.0138155 L20.8969202,74.3720139 C11.7190672,75.0379209 3.92558307,81.1393986 1.1068542,89.9070683 C-1.71507923,98.674097 0.951112698,108.160228 8.02869863,114.108528 L53.8666907,152.818943 L39.5089907,211.064341 C37.8189071,217.833649 39.3032582,224.856116 43.5595516,230.291687 C47.8683997,235.779171 54.5325977,239.058716 61.4025283,239.058716 C65.555635,239.058716 69.6593915,237.880079 73.299128,235.624071 L124.264412,203.989319 L175.229055,235.624071 C178.869433,237.880079 182.969985,239.058716 187.123732,239.058716 C193.996227,239.058716 200.660425,235.779171 204.966709,230.291687 C209.222362,224.856116 210.709917,217.833649 209.01727,211.064341 L194.662134,152.818943 L240.499485,114.108528 C247.471961,108.057683 250.190708,98.5715511 247.369415,89.8045224 Z M229.115614,100.571836 L179.074525,142.769451 C176.510879,144.922913 175.382233,148.357558 176.203241,151.589675 L191.8402,215.167457 C192.251025,216.757558 191.942746,218.141927 191.021756,219.321205 C189.482287,221.268935 186.712908,221.934842 184.45754,220.550473 L128.828343,186.043796 C127.39142,185.172157 125.801318,184.711982 124.211857,184.711982 C122.621756,184.711982 120.982304,185.172157 119.597294,186.043796 L63.9661744,220.603028 C61.7101659,221.987396 58.9414281,221.37148 57.4038813,219.371196 C56.4803278,218.191918 56.1726903,216.757558 56.5828737,215.217448 L72.2230375,151.639666 C73.0414816,148.410113 71.9147591,144.975468 69.351113,142.819442 L19.3074596,100.621827 C17.0014599,98.674097 17.4622753,96.2661924 17.7705538,95.2894432 C18.0781913,94.3158986 19.1023679,92.1124448 22.1287521,91.9073531 L87.3991815,87.1376896 C90.7312805,86.8826068 93.6531961,84.7797761 94.885028,81.7027599 L119.597294,21.0988073 C120.726581,18.3300695 123.187681,18.022432 124.161866,18.022432 C125.135411,18.022432 127.596511,18.3300695 128.725797,21.0988073 L153.438064,81.7027599 C154.719887,84.7797761 157.591811,86.9325979 160.92391,87.1376896 L226.19434,91.9073531 C229.168169,92.1124448 230.2449,94.3684534 230.553179,95.2894432 C230.910808,96.2136376 231.424178,98.6241059 229.115614,100.571836 Z" id="Fill-1" fill="#727272" mask="url(#mask-2)"></path>
            </g>
        </g>
    </g>
</svg>